{
  "data": [
    {
      "id": 972193,
      "ast": 3,
      "blk": 0,
      "dreb": 2,
      "fg3_pct": 0.333,
      "fg3a": 3,
      "fg3m": 1,
      "fg_pct": 0.333,
      "fga": 18,
      "fgm": 6,
      "ft_pct": 0.571,
      "fta": 7,
      "ftm": 4,
      "game": {
        "id": 39093,
        "date": "1986-02-15T00:00:00.000Z",
        "home_team_id": 12,
        "home_team_score": 105,
        "period": 4,
        "postseason": false,
        "season": 1985,
        "status": "Final",
        "time": " ",
        "visitor_team_id": 6,
        "visitor_team_score": 99
      },
      "min": "32",
      "oreb": 2,
      "pf": 5,
      "player": {
        "id": 2243,
        "first_name": "World",
        "height_feet": null,
        "height_inches": null,
        "last_name": "Free",
        "position": "",
        "team_id": 13,
        "weight_pounds": null
      },
      "pts": 17,
      "reb": 4,
      "stl": 1,
      "team": {
        "id": 6,
        "abbreviation": "CLE",
        "city": "Cleveland",
        "conference": "East",
        "division": "Central",
        "full_name": "Cleveland Cavaliers",
        "name": "Cavaliers"
      },
      "turnover": 0
    }
  ],
  "meta": {
    "total_pages": 1549613,
    "current_page": 1,
    "next_page": 2,
    "per_page": 1,
    "total_count": 1549613
  }
}